<svg width="106" height="91" viewBox="0 0 106 91" fill="none" xmlns="http://www.w3.org/2000/svg">
<path d="M90.3049 89.8302L6.80726 81.0542C5.00245 80.8645 3.34693 79.9657 2.20487 78.5553C1.06282 77.145 0.527781 75.3388 0.717473 73.534L1.04648 70.4037C1.23617 68.5988 2.13506 66.9433 3.54538 65.8013C4.9557 64.6592 6.76194 64.1242 8.56674 64.3139L92.0644 73.0898C93.8692 73.2795 95.5247 74.1784 96.6667 75.5887C97.8088 76.999 98.3438 78.8053 98.1541 80.6101L97.8251 83.7404C97.6354 85.5452 96.7366 87.2007 95.3262 88.3428C93.9159 89.4848 92.1097 90.0199 90.3049 89.8302Z" fill="#C7E0FC"/>
<path d="M95.9869 9.19988L17.3144 9.20048L10.5403 70.8879L88.7661 79.1098L95.9869 9.19988Z" fill="#BDD1E3"/>
</svg>
