<svg width="69" height="96" viewBox="0 0 69 96" fill="none" xmlns="http://www.w3.org/2000/svg">
<g filter="url(#filter0_d)">
<path d="M52.5969 83.536L9.18865 78.9736C8.87324 78.9404 8.58451 78.7776 8.38599 78.521C8.18747 78.2643 8.09542 77.9349 8.13008 77.6051L14.5617 16.4125C14.5963 16.0827 14.7549 15.7795 15.0024 15.5698C15.25 15.36 15.5662 15.2608 15.8816 15.2939L59.2899 19.8563C59.6053 19.8895 59.894 20.0523 60.0925 20.3089C60.291 20.5656 60.3831 20.8951 60.3484 21.2249L53.9168 82.4174C53.8822 82.7472 53.7236 83.0504 53.4761 83.2601C53.2285 83.4699 52.9123 83.5691 52.5969 83.536Z" fill="#EA4840"/>
</g>
<path d="M43.4008 25.8008L28.9992 24.2871C28.6879 24.2544 28.4023 24.0993 28.2053 23.8561C28.0084 23.6128 27.9161 23.3013 27.9488 22.99L28.0055 22.4501C28.0383 22.1388 28.1933 21.8533 28.4366 21.6563C28.6798 21.4593 28.9913 21.367 29.3026 21.3997L43.7043 22.9134C44.0155 22.9461 44.3011 23.1012 44.4981 23.3444C44.6951 23.5877 44.7873 23.8992 44.7546 24.2105L44.6979 24.7504C44.6652 25.0617 44.5101 25.3472 44.2669 25.5442C44.0236 25.7412 43.7121 25.8335 43.4008 25.8008Z" fill="#EEF4FA"/>
<path d="M45.6952 3.09124L32.2062 1.6981L29.955 23.0348L43.4473 24.4529L45.6952 3.09124Z" fill="url(#paint0_linear)"/>
<g filter="url(#filter1_d)">
<rect x="14.5889" y="49.3994" width="37.0729" height="21.3207" fill="white"/>
</g>
<rect x="17.8818" y="52.4062" width="17" height="2" fill="#D2DCE6"/>
<rect x="17.8818" y="56.4062" width="28" height="2" fill="#D2DCE6"/>
<rect x="17.8818" y="65.4062" width="10" height="2" fill="#D2DCE6"/>
<rect x="29.8818" y="65.4062" width="6" height="2" fill="#D2DCE6"/>
<circle cx="35" cy="36" r="9" fill="white"/>
<circle cx="34.9999" cy="35.9999" r="7.9999" fill="#C1E2FF"/>
<mask id="mask0" mask-type="alpha" maskUnits="userSpaceOnUse" x="27" y="28" width="16" height="16">
<circle cx="34.9999" cy="35.9999" r="7.9999" fill="#C1E2FF"/>
</mask>
<g mask="url(#mask0)">
<mask id="mask1" mask-type="alpha" maskUnits="userSpaceOnUse" x="28" y="29" width="18" height="19">
<rect x="28.7617" y="29.8389" width="17.1998" height="17.1998" fill="#C1E2FF"/>
</mask>
<g mask="url(#mask1)">
<rect x="28.7617" y="29.8389" width="17.1998" height="17.8416" fill="#C1E2FF"/>
</g>
<rect x="20.4648" y="27.3994" width="29.3278" height="19.6605" transform="rotate(1.9342 20.4648 27.3994)" fill="#C1E2FF"/>
</g>
<mask id="mask2" mask-type="alpha" maskUnits="userSpaceOnUse" x="27" y="28" width="16" height="16">
<circle cx="34.9999" cy="35.9999" r="7.9999" fill="white"/>
<mask id="mask3" maskUnits="userSpaceOnUse" x="27" y="28" width="16" height="16">
<circle cx="34.9999" cy="35.9999" r="7.9999" fill="white"/>
</mask>
<g mask="url(#mask3)">
<mask id="mask4" maskUnits="userSpaceOnUse" x="28" y="29" width="18" height="19">
<rect x="28.7617" y="29.8389" width="17.1998" height="17.1998" fill="white"/>
</mask>
<g mask="url(#mask4)">
<rect x="28.7617" y="29.8389" width="17.1998" height="17.8416" fill="white"/>
</g>
<rect x="20.4648" y="27.3994" width="29.3278" height="19.6605" transform="rotate(1.9342 20.4648 27.3994)" fill="white"/>
</g>
</mask>
<g mask="url(#mask2)">
<g opacity="0.4">
<circle cx="35" cy="46" r="8" fill="#737F89"/>
<circle cx="35" cy="34" r="3" fill="#737F89"/>
</g>
</g>
<defs>
<filter id="filter0_d" x="-0.000976562" y="11.1689" width="68.4797" height="84.492" filterUnits="userSpaceOnUse" color-interpolation-filters="sRGB">
<feFlood flood-opacity="0" result="BackgroundImageFix"/>
<feColorMatrix in="SourceAlpha" type="matrix" values="0 0 0 0 0 0 0 0 0 0 0 0 0 0 0 0 0 0 127 0"/>
<feOffset dy="4"/>
<feGaussianBlur stdDeviation="4"/>
<feColorMatrix type="matrix" values="0 0 0 0 0.141176 0 0 0 0 0.576471 0 0 0 0 0.956863 0 0 0 0.16 0"/>
<feBlend mode="normal" in2="BackgroundImageFix" result="effect1_dropShadow"/>
<feBlend mode="normal" in="SourceGraphic" in2="effect1_dropShadow" result="shape"/>
</filter>
<filter id="filter1_d" x="9.58887" y="45.8994" width="47.0729" height="31.3207" filterUnits="userSpaceOnUse" color-interpolation-filters="sRGB">
<feFlood flood-opacity="0" result="BackgroundImageFix"/>
<feColorMatrix in="SourceAlpha" type="matrix" values="0 0 0 0 0 0 0 0 0 0 0 0 0 0 0 0 0 0 127 0"/>
<feOffset dy="1.5"/>
<feGaussianBlur stdDeviation="2.5"/>
<feColorMatrix type="matrix" values="0 0 0 0 0.0375 0 0 0 0 0.0375 0 0 0 0 0.0375 0 0 0 0.2 0"/>
<feBlend mode="normal" in2="BackgroundImageFix" result="effect1_dropShadow"/>
<feBlend mode="normal" in="SourceGraphic" in2="effect1_dropShadow" result="shape"/>
</filter>
<linearGradient id="paint0_linear" x1="38.9477" y1="2.38204" x2="36.7025" y2="23.744" gradientUnits="userSpaceOnUse">
<stop stop-color="#BDD1E3" stop-opacity="0"/>
<stop offset="0.489583" stop-color="#BDD1E3"/>
<stop offset="1" stop-color="#BDD1E3"/>
</linearGradient>
</defs>
</svg>
