<svg width="235" height="160" viewBox="0 0 235 160" fill="none" xmlns="http://www.w3.org/2000/svg">
<g opacity="0.4">
<rect x="1" y="1" width="31.5402" height="31.5402" stroke="#54AFFF" stroke-width="1.5"/>
<rect x="1" y="32.541" width="31.5402" height="31.5402" stroke="#54AFFF" stroke-width="1.5"/>
<rect x="1" y="64.0801" width="31.5402" height="31.5402" stroke="#54AFFF" stroke-width="1.5"/>
<rect x="1" y="95.6211" width="31.5402" height="31.5402" stroke="#54AFFF" stroke-width="1.5"/>
<rect x="1" y="127.16" width="31.5402" height="31.5402" stroke="#54AFFF" stroke-width="1.5"/>
<rect x="32.3867" y="1" width="31.5402" height="31.5402" stroke="#54AFFF" stroke-width="1.5"/>
<rect x="32.3867" y="32.541" width="31.5402" height="31.5402" stroke="#54AFFF" stroke-width="1.5"/>
<rect x="32.3867" y="64.0801" width="31.5402" height="31.5402" stroke="#54AFFF" stroke-width="1.5"/>
<rect x="32.3867" y="95.6211" width="31.5402" height="31.5402" stroke="#54AFFF" stroke-width="1.5"/>
<rect x="32.3867" y="127.16" width="31.5402" height="31.5402" stroke="#54AFFF" stroke-width="1.5"/>
<rect x="63.7734" y="1" width="31.5402" height="31.5402" stroke="#54AFFF" stroke-width="1.5"/>
<rect x="63.7734" y="32.541" width="31.5402" height="31.5402" stroke="#54AFFF" stroke-width="1.5"/>
<rect x="63.7734" y="64.0801" width="31.5402" height="31.5402" stroke="#54AFFF" stroke-width="1.5"/>
<rect x="63.7734" y="95.6211" width="31.5402" height="31.5402" stroke="#54AFFF" stroke-width="1.5"/>
<rect x="63.7734" y="127.16" width="31.5402" height="31.5402" stroke="#54AFFF" stroke-width="1.5"/>
<rect x="95.1602" y="1" width="31.5402" height="31.5402" stroke="#54AFFF" stroke-width="1.5"/>
<rect x="95.1602" y="32.541" width="31.5402" height="31.5402" stroke="#54AFFF" stroke-width="1.5"/>
<rect x="95.1602" y="64.0801" width="31.5402" height="31.5402" stroke="#54AFFF" stroke-width="1.5"/>
<rect x="95.1602" y="95.6211" width="31.5402" height="31.5402" stroke="#54AFFF" stroke-width="1.5"/>
<rect x="95.1602" y="127.16" width="31.5402" height="31.5402" stroke="#54AFFF" stroke-width="1.5"/>
<rect x="126.547" y="1" width="31.5402" height="31.5402" stroke="#54AFFF" stroke-width="1.5"/>
<rect x="126.547" y="32.541" width="31.5402" height="31.5402" stroke="#54AFFF" stroke-width="1.5"/>
<rect x="126.547" y="64.0801" width="31.5402" height="31.5402" stroke="#54AFFF" stroke-width="1.5"/>
<rect x="126.547" y="95.6211" width="31.5402" height="31.5402" stroke="#54AFFF" stroke-width="1.5"/>
<rect x="126.547" y="127.16" width="31.5402" height="31.5402" stroke="#54AFFF" stroke-width="1.5"/>
<rect x="189.629" y="1" width="31.5402" height="31.5402" stroke="#54AFFF" stroke-width="1.5"/>
<rect x="189.629" y="32.541" width="31.5402" height="31.5402" stroke="#54AFFF" stroke-width="1.5"/>
<rect x="189.629" y="64.0801" width="31.5402" height="31.5402" stroke="#54AFFF" stroke-width="1.5"/>
<rect x="189.629" y="95.6211" width="31.5402" height="31.5402" stroke="#54AFFF" stroke-width="1.5"/>
<rect x="189.629" y="127.16" width="31.5402" height="31.5402" stroke="#54AFFF" stroke-width="1.5"/>
<rect x="158.09" y="1" width="31.5402" height="31.5402" stroke="#54AFFF" stroke-width="1.5"/>
<rect x="158.09" y="32.541" width="31.5402" height="31.5402" stroke="#54AFFF" stroke-width="1.5"/>
<rect x="158.09" y="64.0801" width="31.5402" height="31.5402" stroke="#54AFFF" stroke-width="1.5"/>
<rect x="158.09" y="95.6211" width="31.5402" height="31.5402" stroke="#54AFFF" stroke-width="1.5"/>
<rect x="158.09" y="127.16" width="31.5402" height="31.5402" stroke="#54AFFF" stroke-width="1.5"/>
<rect x="221.168" y="1" width="31.5402" height="31.5402" stroke="#54AFFF" stroke-width="1.5"/>
<rect x="221.168" y="32.541" width="31.5402" height="31.5402" stroke="#54AFFF" stroke-width="1.5"/>
<rect x="221.168" y="64.0801" width="31.5402" height="31.5402" stroke="#54AFFF" stroke-width="1.5"/>
<rect x="221.168" y="95.6211" width="31.5402" height="31.5402" stroke="#54AFFF" stroke-width="1.5"/>
<rect x="221.168" y="127.16" width="31.5402" height="31.5402" stroke="#54AFFF" stroke-width="1.5"/>
</g>
</svg>
