<svg width="2085" height="862" viewBox="0 0 2085 862" fill="none" xmlns="http://www.w3.org/2000/svg">
<path fill-rule="evenodd" clip-rule="evenodd" d="M117.167 546.776L73.722 523.197L82.527 556.058L40.3377 567.363L16.6885 479.103L58.8779 467.799L66.7017 496.997L95.7717 457.913L149.293 443.572L107.669 497.803L162.371 526.299L179.527 435.471L234.782 420.665L298.439 491.075L276.573 409.467L318.762 398.163L326.586 427.362L355.656 388.277L409.178 373.936L367.553 428.168L432.859 462.187L377.051 477.141L333.606 453.562L342.411 486.422L256.688 509.392L248.244 499.158L205.916 510.5L203.833 523.554L117.167 546.776ZM201.98 521.884L204.063 508.83L249.002 496.789L257.446 507.022L299.781 495.679L234.088 423.018L181.339 437.152L163.904 529.457L104.491 498.507L143.879 447.189L97.0164 459.746L65.7997 501.716L57.3982 470.361L19.2515 480.583L41.8174 564.8L79.9641 554.579L70.4403 519.035L117.432 544.539L201.98 521.884ZM339.848 484.943L330.324 449.4L377.316 474.903L427.122 461.558L364.375 428.871L403.763 377.553L356.901 390.11L325.684 432.081L317.282 400.726L279.136 410.947L301.702 495.164L339.848 484.943ZM208.259 482.835L232.03 476.465L213.086 453.759L208.259 482.835ZM210.856 479.973L228.326 475.292L214.403 458.604L210.856 479.973ZM461.392 454.542L437.743 366.282L563.47 332.593L587.119 420.853L544.93 432.158L528.946 372.504L487.597 383.583L503.581 443.237L461.392 454.542ZM501.018 441.757L462.872 451.979L440.306 367.762L561.99 335.156L584.556 419.373L546.41 429.595L530.425 369.941L485.034 382.104L501.018 441.757ZM567.63 331.479L669.473 304.19L676.531 330.532L616.311 346.668L617.442 350.889L676.756 334.995L683.724 360.998L624.41 376.891L625.783 382.017L686.569 365.73L693.688 392.298L591.279 419.739L567.63 331.479ZM685.089 368.293L691.125 390.818L592.758 417.176L570.193 332.959L667.993 306.753L673.968 329.052L613.748 345.188L615.963 353.452L675.277 337.558L681.161 359.518L621.847 375.411L624.303 384.58L685.089 368.293ZM672.866 303.281L752.539 281.933C768.653 277.615 780.253 277.938 788.473 281.686C796.795 285.48 801.235 292.585 803.434 300.792L804.102 303.282C806.289 311.444 805.974 319.982 800.711 327.604C795.496 335.156 785.667 341.447 769.636 345.742L732.153 355.786L738.704 380.236L696.515 391.541L672.866 303.281ZM736.141 378.756L697.994 388.978L675.429 304.761L753.08 283.954C784.888 275.431 797.227 285.713 801.413 301.334L802.08 303.824C806.236 319.332 800.676 335.259 769.095 343.721L729.59 354.306L736.141 378.756ZM752.225 311.099L722.326 319.111L724.761 328.199L754.66 320.187C757.694 319.374 759.221 318.259 759.934 317.263C760.597 316.339 760.754 315.246 760.394 313.902L760.334 313.676C759.955 312.261 759.267 311.408 758.255 310.957C757.149 310.465 755.277 310.281 752.225 311.099ZM796.23 270.226L898.074 242.937L905.132 269.279L844.912 285.415L846.043 289.635L905.357 273.742L912.325 299.745L853.01 315.638L854.384 320.764L915.17 304.476L922.289 331.045L819.88 358.485L796.23 270.226ZM913.69 307.039L919.726 329.565L821.359 355.922L798.793 271.705L896.594 245.5L902.569 267.799L842.349 283.935L844.563 292.198L903.877 276.305L909.762 298.265L850.447 314.158L852.904 323.327L913.69 307.039ZM925.115 330.287L901.466 242.028L990.195 218.253C1002.95 214.834 1012 214.956 1018.31 217.475C1024.75 220.046 1028.01 224.979 1029.43 230.287L1029.68 231.193C1031.91 239.507 1028.02 246.185 1023.02 250.57C1026.25 250.865 1029.57 251.603 1032.67 253.065C1038.14 255.652 1042.73 260.427 1044.89 268.488L1045.19 269.62C1047.09 276.715 1046.55 284.131 1041.66 290.746C1036.84 297.276 1028 302.721 1013.96 306.482L925.115 330.287ZM1020.52 252.519C1019.07 252.48 1017.64 252.522 1016.27 252.62C1017.47 252.015 1018.7 251.276 1019.88 250.414C1025.31 246.46 1029.85 239.912 1027.66 231.734L1027.41 230.829C1024.84 221.207 1015.87 213.541 990.737 220.274L904.029 243.507L926.595 327.724L1013.42 304.461C1041.04 297.06 1046.72 283.405 1043.17 270.162L1042.87 269.03C1039.42 256.164 1029.51 252.765 1020.52 252.519ZM986.949 246.441C986.074 246.178 984.455 246.204 981.517 246.992L950.259 255.367L951.815 261.172L983.073 252.797C985.949 252.026 987.347 251.17 987.969 250.466C988.442 249.931 988.596 249.347 988.326 248.339L988.265 248.113C988.099 247.492 987.897 247.129 987.71 246.91C987.543 246.714 987.323 246.553 986.949 246.441ZM998.192 276.019C997.168 275.612 995.199 275.476 991.479 276.473L958.297 285.364L960.489 293.546L993.671 284.655C997.397 283.657 998.977 282.466 999.624 281.547C1000.19 280.736 1000.27 279.796 999.919 278.475L999.858 278.248C999.517 276.975 999.02 276.349 998.192 276.019ZM1029.25 207.787L1131.1 180.499L1138.15 206.841L1077.93 222.976L1079.07 227.197L1138.38 211.304L1145.35 237.306L1086.03 253.2L1087.41 258.326L1148.19 242.038L1155.31 268.607L1052.9 296.047L1029.25 207.787ZM1146.71 244.601L1152.75 267.127L1054.38 293.484L1031.82 209.267L1129.62 183.061L1135.59 205.361L1075.37 221.497L1077.59 229.76L1136.9 213.867L1142.78 235.827L1083.47 251.72L1085.93 260.889L1146.71 244.601ZM1277.1 193.06L1278.28 197.458C1279.94 203.659 1280.48 213.618 1273.48 223.893C1266.51 234.114 1252.31 244.316 1225.22 251.573L1221.03 252.695C1193.26 260.138 1175.23 258.082 1163.47 251.624C1151.68 245.148 1146.66 234.5 1144.33 225.827L1143.42 222.431C1141.08 213.672 1139.97 202.074 1146.93 190.713C1153.85 179.397 1168.5 168.779 1196.53 161.266L1200.72 160.144C1227.86 152.873 1245.21 154.523 1256.31 159.828C1262.88 162.97 1267.13 167.331 1269.87 171.655L1262.78 145.213L1377.76 114.406L1385.91 144.823L1349.57 154.559L1365.07 212.402L1322.77 223.737L1307.27 165.894L1271.89 175.375C1272.67 177.09 1273.25 178.737 1273.66 180.233L1273.67 180.252L1274.64 183.859L1232.03 195.276L1231.22 193.906L1231.17 193.824C1230.65 192.94 1229.39 190.79 1226.04 189.346C1222.53 187.835 1216.4 186.966 1205.87 189.787C1195.65 192.525 1190.6 196.313 1188.26 200.014C1185.95 203.667 1186.02 207.658 1187.04 211.472L1187.4 212.83C1188.38 216.488 1190.49 220.23 1194.52 222.488C1198.56 224.748 1204.93 225.742 1214.91 223.068C1225.64 220.193 1230.45 216.163 1232.62 212.954C1234.78 209.768 1234.55 207.064 1234.48 206.269L1234.33 204.52L1277.1 193.06ZM1275.62 195.623L1276.26 198C1279.35 209.546 1278.33 235.175 1224.68 249.552L1220.49 250.674C1165.48 265.414 1150.84 242.038 1146.35 225.285L1145.44 221.89C1140.9 204.91 1141.5 178.18 1197.08 163.287L1201.26 162.165C1254.37 147.936 1268.08 168.643 1271.52 180.359C1271.57 180.506 1271.61 180.651 1271.65 180.794L1272.07 182.379L1233.02 192.843L1232.98 192.768C1231.78 190.731 1226.68 182.046 1205.33 187.765C1184.39 193.377 1182.8 203.751 1185.02 212.014L1185.38 213.372C1187.54 221.409 1194.85 230.61 1215.46 225.09C1237.53 219.175 1236.75 208.102 1236.57 206.087L1275.62 195.623ZM1272.41 173.067L1265.35 146.693L1376.28 116.969L1383.34 143.343L1347.01 153.079L1362.51 210.922L1324.25 221.174L1308.75 163.331L1272.41 173.067ZM1490.81 178.709L1478.22 131.704L1444.56 191.104L1403.54 202.094L1379.89 113.834L1422.08 102.529L1434.7 149.639L1468.34 90.1347L1509.35 79.1444L1533 167.404L1490.81 178.709ZM1434.01 155.124L1420.6 105.092L1382.45 115.314L1405.02 199.531L1443.17 189.309L1478.92 126.227L1492.29 176.146L1530.44 165.924L1507.87 81.7074L1469.73 91.9288L1434.01 155.124ZM65.3599 623.536C72.4652 612.173 87.2842 601.475 115.384 593.946L120.817 592.49C148.972 584.946 167.182 586.793 179.032 593.077C187.479 597.557 192.464 604.167 195.483 610.752C195.003 603.631 196.764 596.644 201.465 590.334C207.699 581.968 218.899 575.066 236.122 570.451L254.815 565.442L252.722 557.632L294.912 546.327L297.004 554.137L315.585 549.159C332.808 544.544 345.985 544.914 355.593 549.033C362.059 551.805 366.77 556.216 369.952 561.686C369.962 555.364 371.816 549.194 376.011 543.565C382.244 535.198 393.444 528.296 410.667 523.681L429.361 518.673L427.268 510.862L469.457 499.557L471.55 507.368L490.13 502.389C507.354 497.774 520.531 498.145 530.138 502.264C539.834 506.42 545.583 514.26 548.148 523.83L548.815 526.32C550.06 530.967 550.467 535.668 549.839 540.257L550.441 540.096C555.399 538.768 557.099 537.581 558.058 535.484C558.724 533.827 559.094 531.394 557.719 523.753C556.341 516.097 553.295 503.594 547.515 482.022L546.973 480L653.684 451.407L675.536 532.959L692.925 440.893L748.18 426.087L811.838 496.497L789.971 414.889L832.161 403.585L844.784 450.695L878.418 391.19L919.434 380.2L943.083 468.46L900.894 479.764L888.299 432.76L854.635 492.159L770.086 514.814L761.642 504.58L719.314 515.922L717.231 528.976L635.144 550.972L619.068 490.978L593.677 497.782C596.772 509.473 598.906 518.847 599.978 526.494C601.108 534.557 601.085 540.874 599.651 546.056C598.22 551.485 595.53 555.884 590.826 559.51C586.195 563.081 579.712 565.824 570.833 568.204L555.115 572.415L548.225 546.702C547.262 549.292 545.917 551.817 544.15 554.246C537.959 562.761 526.795 569.813 509.555 574.432L490.862 579.441L493.713 590.081L451.524 601.386L448.673 590.745L429.866 595.785C412.627 600.404 399.459 599.872 389.866 595.584C383.435 592.709 378.753 588.21 375.585 582.707C375.582 589.062 373.756 595.306 369.605 601.016C363.413 609.53 352.249 616.582 335.01 621.201L316.316 626.21L319.167 636.851L276.978 648.155L274.127 637.515L255.32 642.554C238.081 647.173 224.913 646.642 215.32 642.353C208.526 639.316 203.683 634.465 200.516 628.533C201.525 636.13 200.813 645.111 195.363 653.978C188.286 665.49 173.484 676.372 145.315 683.919L139.882 685.375C111.769 692.908 93.5373 690.877 81.666 684.441C69.7585 677.986 64.7013 667.345 62.3901 658.719L61.4802 655.324C59.1392 646.587 58.2255 634.946 65.3599 623.536ZM373.027 577.206C372.828 576.015 372.567 574.822 372.248 573.631L371.581 571.141C371.263 569.954 370.894 568.798 370.473 567.676C364.472 551.681 347.859 542.677 316.126 551.18L295.525 556.7L293.432 548.89L255.285 559.111L257.378 566.922L236.663 572.472C202.705 581.571 193.879 599.344 198.732 617.455L199.399 619.946C204.252 638.057 220.82 649.632 254.779 640.533L275.607 634.952L278.458 645.592L316.604 635.371L313.753 624.73L334.468 619.18C366.192 610.679 375.85 594.115 373.027 577.206ZM375.057 576.663C381.054 592.721 397.601 602.264 429.324 593.763L450.152 588.182L453.003 598.823L491.15 588.601L488.299 577.961L509.014 572.411C532.826 566.03 544.206 555.106 547.207 542.904C547.375 542.223 547.516 541.537 547.632 540.849C548.402 536.281 548.054 531.564 546.794 526.861L546.126 524.371C541.273 506.26 524.63 495.312 490.672 504.411L470.07 509.931L467.978 502.12L429.831 512.342L431.924 520.152L411.209 525.703C379.476 534.206 369.69 550.282 372.503 567.131C372.7 568.313 372.959 569.499 373.278 570.686L373.945 573.176C374.264 574.368 374.634 575.532 375.057 576.663ZM556.594 569.852L570.291 566.182C587.836 561.481 594.985 555.562 597.631 545.511C600.284 535.944 597.881 521.544 591.118 496.301L620.548 488.415L636.623 548.409L674.77 538.187L652.204 453.97L549.536 481.48C561.092 524.607 561.81 531.816 559.981 536.309C558.611 539.345 556.077 540.753 550.983 542.117L549.285 542.572L556.594 569.852ZM715.379 527.306L717.462 514.252L762.4 502.211L770.844 512.444L813.179 501.101L747.486 428.44L694.737 442.574L676.779 537.649L715.379 527.306ZM853.247 490.365L888.998 427.282L902.373 477.201L940.52 466.98L917.954 382.763L879.807 392.984L844.087 456.18L830.681 406.148L792.534 416.369L815.1 500.586L853.247 490.365ZM155.359 632.595L154.935 631.01C153.99 627.484 151.754 624.041 147.434 622.055C143.056 620.042 136.229 619.384 125.856 622.164C115.245 625.007 109.675 628.993 106.953 632.892C104.273 636.732 104.141 640.796 105.097 644.365L105.461 645.723C106.441 649.38 108.784 653.057 113.198 655.229C117.642 657.416 124.5 658.23 134.782 655.475C145.075 652.717 150.623 648.634 153.391 644.569C156.134 640.54 156.338 636.248 155.359 632.595ZM315.558 578.491L303.883 581.619L308.502 598.857L320.29 595.699C325.712 594.246 328.533 592.108 329.904 590.076C331.25 588.078 331.39 585.896 330.849 583.874L330.727 583.422C330.186 581.401 328.975 579.584 326.8 578.531C324.583 577.457 321.041 577.022 315.558 578.491ZM267.105 609.95L262.486 592.712L250.924 595.81C245.38 597.295 242.501 599.453 241.105 601.497C239.737 603.499 239.598 605.676 240.139 607.695L240.26 608.148C240.802 610.168 242.013 611.986 244.188 613.039C246.405 614.112 249.947 614.547 255.43 613.078L267.105 609.95ZM490.104 531.722L478.429 534.85L483.048 552.088L494.836 548.929C500.258 547.477 503.079 545.339 504.449 543.306C505.796 541.309 505.936 539.127 505.394 537.105L505.273 536.652C504.732 534.632 503.521 532.814 501.346 531.761C499.129 530.688 495.587 530.253 490.104 531.722ZM441.651 563.18L437.032 545.942L425.47 549.04C419.925 550.526 417.047 552.684 415.651 554.727C414.283 556.729 414.144 558.906 414.685 560.925L414.806 561.378C415.347 563.399 416.558 565.216 418.733 566.269C420.95 567.343 424.492 567.778 429.975 566.309L441.651 563.18ZM721.658 488.257L745.429 481.887L726.484 459.181L721.658 488.257ZM724.254 485.394L741.724 480.713L727.801 464.026L724.254 485.394ZM879.694 365.007L880.296 367.254C881.279 370.922 881.372 376.845 878.293 382.657C875.176 388.542 868.942 394.059 857.728 397.063L852.521 398.458C840.402 401.706 832.147 400.106 826.631 396.462C821.175 392.857 818.788 387.507 817.845 383.988L817.243 381.74L843.472 374.712L844.013 376.734C844.087 377.008 844.471 377.911 845.349 378.558C846.118 379.126 847.524 379.693 850.098 379.003L850.325 378.942C852.823 378.273 853.7 377.11 854.063 376.247C854.478 375.259 854.386 374.247 854.306 373.78L853.98 371.897L879.694 365.007ZM878.214 367.569L878.275 367.796C878.422 368.346 878.548 368.958 878.64 369.622C879.634 376.743 876.86 389.77 857.186 395.042L851.979 396.437C830.545 402.18 822.9 391.945 820.429 385.219C820.199 384.593 820.014 383.996 819.866 383.446L819.806 383.22L841.992 377.275C842.326 378.52 844.414 382.692 850.64 381.024L850.866 380.963C856.979 379.326 856.588 374.699 856.368 373.423L878.214 367.569ZM1033.64 444.196L1025.36 413.294L981.064 425.162L989.344 456.064L947.155 467.369L923.506 379.109L965.695 367.804L973.399 396.556L1017.69 384.688L1009.99 355.936L1052.29 344.601L1075.94 432.861L1033.64 444.196ZM1012.55 357.416L1050.81 347.164L1073.38 431.381L1035.12 441.633L1026.84 410.731L978.501 423.682L986.781 454.584L948.635 464.806L926.069 380.589L964.215 370.367L971.919 399.119L1020.25 386.168L1012.55 357.416ZM1065.52 383.035L1108.04 371.639L1115.25 398.547L1072.73 409.943L1065.52 383.035ZM1074.21 407.38L1068.08 384.514L1106.57 374.202L1112.69 397.067L1074.21 407.38ZM1124.02 419.977L1100.37 331.717L1226.1 298.029L1249.75 386.289L1207.56 397.593L1191.58 337.939L1150.23 349.019L1166.21 408.673L1124.02 419.977ZM1163.65 407.193L1125.5 417.414L1102.94 333.197L1224.62 300.592L1247.19 384.809L1209.04 395.03L1193.06 335.377L1147.66 347.539L1163.65 407.193ZM1230.26 296.914L1309.93 275.566C1326.05 271.248 1337.65 271.571 1345.87 275.319C1354.19 279.113 1358.63 286.218 1360.83 294.425L1360.97 294.948C1360.89 288.626 1362.28 281.713 1366.55 274.884C1373.65 263.52 1388.47 252.823 1416.57 245.293L1422.01 243.837C1450.16 236.293 1468.37 238.141 1480.22 244.424C1492.12 250.734 1497.15 261.273 1499.49 270.01L1500.4 273.406C1502.71 282.032 1503.65 293.776 1496.55 305.325C1489.48 316.838 1474.67 327.719 1446.5 335.267L1441.07 336.723C1412.96 344.255 1394.73 342.225 1382.86 335.789C1370.95 329.333 1365.89 318.692 1363.58 310.067L1362.76 306.998C1362.6 311.887 1361.22 316.722 1358.1 321.237C1352.89 328.79 1343.06 335.08 1327.03 339.376L1289.55 349.419L1296.1 373.869L1253.91 385.174L1230.26 296.914ZM1293.54 372.39L1255.39 382.611L1232.82 298.394L1310.47 277.587C1342.28 269.064 1354.62 279.346 1358.81 294.967L1359.47 297.457C1363.63 312.965 1358.07 328.892 1326.49 337.354L1286.98 347.94L1293.54 372.39ZM1309.62 304.733L1279.72 312.744L1282.15 321.832L1312.05 313.821C1315.09 313.008 1316.61 311.892 1317.33 310.897C1317.99 309.973 1318.15 308.879 1317.79 307.535L1317.73 307.309C1317.35 305.895 1316.66 305.041 1315.65 304.59C1314.54 304.098 1312.67 303.915 1309.62 304.733ZM1454.58 295.916C1457.32 291.888 1457.53 287.595 1456.55 283.943L1456.12 282.358C1455.18 278.831 1452.94 275.388 1448.62 273.402C1444.25 271.39 1437.42 270.732 1427.05 273.511C1416.43 276.354 1410.86 280.34 1408.14 284.239C1405.46 288.079 1405.33 292.143 1406.29 295.712L1406.65 297.07C1407.63 300.727 1409.97 304.404 1414.39 306.576C1418.83 308.763 1425.69 309.578 1435.97 306.823C1446.26 304.065 1451.81 299.981 1454.58 295.916ZM1490.03 227.308L1591.88 200.019L1598.93 226.361L1538.72 242.497L1539.85 246.718L1599.16 230.825L1606.13 256.827L1546.81 272.72L1548.19 277.846L1608.97 261.559L1616.09 288.128L1513.68 315.568L1490.03 227.308ZM1607.49 264.122L1613.53 286.648L1515.16 313.005L1492.6 228.788L1590.4 202.582L1596.37 224.882L1536.15 241.018L1538.37 249.281L1597.68 233.388L1603.56 255.347L1544.25 271.241L1546.71 280.409L1607.49 264.122ZM1695.75 266.784L1652.3 243.205L1661.11 276.065L1618.92 287.37L1595.27 199.11L1637.46 187.806L1645.28 217.005L1674.35 177.92L1834.56 134.993L1842.71 165.41L1806.37 175.146L1821.87 232.989L1779.57 244.324L1764.07 186.481L1727.73 196.217L1721.29 172.16L1686.25 217.81L1751.56 251.83L1695.75 266.784ZM1683.07 218.514L1722.21 167.52L1729.21 193.654L1765.55 183.918L1781.05 241.761L1819.31 231.509L1803.81 173.667L1840.14 163.931L1833.08 137.556L1675.6 179.753L1644.38 221.724L1635.98 190.369L1597.83 200.59L1620.4 284.807L1658.54 274.586L1649.02 239.043L1696.01 264.546L1745.82 251.201L1683.07 218.514ZM719.763 317.631L723.281 330.762L755.202 322.209C761.767 320.449 763.386 316.983 762.416 313.36L762.355 313.134C761.354 309.398 758.249 307.319 751.684 309.078L719.763 317.631ZM990.286 247.571C989.407 244.288 986.975 243.363 980.975 244.97L947.696 253.887L950.335 263.735L983.614 254.818C989.614 253.211 991.166 250.854 990.347 247.797L990.286 247.571ZM1001.88 277.707C1001 274.424 998.635 272.389 990.937 274.451L955.734 283.884L959.009 296.109L994.213 286.676C1002.02 284.584 1002.82 281.216 1001.94 277.933L1001.88 277.707ZM63.5016 654.782C58.9823 637.916 60.2333 610.89 115.925 595.967L121.359 594.511C177.164 579.559 191.76 602.338 196.279 619.204L197.189 622.6C201.648 639.24 200.579 666.945 144.774 681.898L139.34 683.354C83.6484 698.276 68.8701 674.818 64.4115 658.178L63.5016 654.782ZM157.381 632.054L156.956 630.469C154.803 622.432 146.595 614.44 125.315 620.142C103.581 625.966 100.922 636.869 103.075 644.906L103.439 646.264C105.653 654.528 114.156 663.168 135.324 657.497C156.491 651.825 159.595 640.317 157.381 632.054ZM301.32 580.14L307.022 601.42L320.832 597.72C332.265 594.657 334.205 588.313 332.87 583.333L332.749 582.88C331.414 577.9 326.562 573.376 315.017 576.47L301.32 580.14ZM263.966 590.149L250.382 593.789C238.723 596.913 236.783 603.256 238.118 608.236L238.239 608.689C239.574 613.67 244.425 618.193 255.971 615.099L269.668 611.43L263.966 590.149ZM475.866 533.37L481.568 554.651L495.378 550.951C506.81 547.887 508.75 541.544 507.416 536.563L507.294 536.111C505.96 531.13 501.108 526.607 489.562 529.7L475.866 533.37ZM438.511 543.379L424.928 547.019C413.269 550.143 411.329 556.486 412.663 561.467L412.785 561.92C414.119 566.9 418.971 571.424 430.517 568.33L444.214 564.66L438.511 543.379ZM1277.16 311.264L1280.68 324.395L1312.6 315.842C1319.16 314.083 1320.78 310.616 1319.81 306.994L1319.75 306.767C1318.75 303.032 1315.64 300.952 1309.08 302.711L1277.16 311.264ZM1364.69 306.129C1360.17 289.263 1361.42 262.237 1417.11 247.315L1422.55 245.859C1478.35 230.906 1492.95 253.686 1497.47 270.552L1498.38 273.948C1502.84 290.587 1501.77 318.292 1445.96 333.245L1440.53 334.701C1384.84 349.624 1370.06 326.165 1365.6 309.525L1364.69 306.129ZM1458.57 283.401L1458.15 281.816C1455.99 273.779 1447.78 265.787 1426.5 271.49C1404.77 277.313 1402.11 288.217 1404.26 296.254L1404.63 297.612C1406.84 305.875 1415.35 314.516 1436.51 308.844C1457.68 303.172 1460.78 291.664 1458.57 283.401Z" fill="white" fill-opacity="0.3"/>
<path fill-rule="evenodd" clip-rule="evenodd" d="M124.555 823.433L116.274 792.53L71.9829 804.398L80.2631 835.301L38.0738 846.605L14.4246 758.345L56.614 747.041L64.318 775.792L108.61 763.924L100.906 735.173L143.208 723.838L165.003 805.178L182.348 713.351L237.603 698.545L306.449 774.694L259.509 787.272L251.065 777.038L208.737 788.38L206.654 801.434L124.555 823.433ZM164.294 810.618L141.728 726.401L103.469 736.653L111.172 765.404L62.8382 778.355L55.1343 749.604L16.9876 759.825L39.5535 844.042L77.7002 833.821L69.4199 802.919L117.754 789.968L126.034 820.87L164.294 810.618ZM204.801 799.764L206.884 786.71L251.823 774.669L260.267 784.902L302.602 773.559L236.909 700.898L184.16 715.032L166.202 810.107L204.801 799.764ZM211.08 760.715L234.851 754.345L215.907 731.639L211.08 760.715ZM213.677 757.852L231.147 753.171L217.224 736.484L213.677 757.852ZM435.88 647.583L451.864 707.237L465.447 703.597L476.154 743.555L440.837 753.018L436.712 737.624L370.38 755.398L374.505 770.792L339.075 780.286L328.368 740.328L339.914 737.234C342.331 725.425 340.943 713.907 330.722 675.76L435.88 647.583ZM338.107 735.552C340.062 724.702 338.559 713.096 328.7 676.302L328.159 674.281L437.359 645.02L453.344 704.674L466.927 701.035L478.717 745.035L439.357 755.581L435.232 740.187L372.943 756.877L377.068 772.272L337.595 782.848L325.805 738.848L338.107 735.552ZM376.023 727.559L413.717 717.459L404.315 682.368L372.281 690.952C376.292 706.334 377.54 717.694 376.448 725.278C376.332 726.081 376.191 726.841 376.023 727.559ZM378.634 724.693L411.154 715.979L402.835 684.931L374.821 692.437C378.302 706.313 379.532 717.053 378.634 724.693ZM562.43 706.104L549.835 659.1L516.171 718.499L475.157 729.489L451.508 641.229L493.697 629.925L506.32 677.035L539.954 617.53L580.97 606.54L604.619 694.8L562.43 706.104ZM505.623 682.52L492.217 632.488L454.07 642.709L476.636 726.926L514.783 716.705L550.534 653.622L563.91 703.541L602.056 693.32L579.491 609.103L541.344 619.324L505.623 682.52ZM727.765 618.89L728.944 623.288C730.605 629.489 731.144 639.448 724.143 649.722C717.177 659.944 702.969 670.146 675.885 677.403L671.697 678.525C643.92 685.968 625.889 683.912 614.133 677.454C602.345 670.978 597.321 660.33 594.997 651.657L594.087 648.261C591.74 639.502 590.637 627.904 597.591 616.543C604.518 605.227 619.16 594.609 647.198 587.096L651.386 585.974C678.519 578.703 695.873 580.353 706.972 585.658C713.545 588.8 717.795 593.161 720.532 597.485L713.447 571.043L828.421 540.236L836.571 570.653L800.235 580.389L815.734 638.232L773.432 649.567L757.933 591.724L722.55 601.205C723.338 602.919 723.912 604.567 724.328 606.063L724.334 606.082L725.3 609.688L682.69 621.106L681.882 619.736L681.834 619.655C681.316 618.77 680.055 616.62 676.704 615.176C673.196 613.665 667.068 612.796 656.539 615.617C646.319 618.355 641.266 622.143 638.925 625.844C636.614 629.497 636.682 633.488 637.704 637.302L638.068 638.66C639.048 642.318 641.15 646.06 645.187 648.318C649.226 650.578 655.598 651.572 665.578 648.898C676.309 646.023 681.117 641.993 683.286 638.784C685.44 635.598 685.218 632.894 685.149 632.099L684.996 630.35L727.765 618.89ZM726.286 621.453L726.922 623.83C730.016 635.376 728.998 661.005 675.343 675.381L671.155 676.504C616.142 691.244 601.507 667.868 597.018 651.115L596.109 647.719C591.559 630.74 592.161 604.009 647.74 589.117L651.928 587.995C705.033 573.766 718.739 594.473 722.188 606.189C722.231 606.336 722.272 606.481 722.312 606.624L722.737 608.209L683.685 618.673L683.64 618.597C682.444 616.561 677.342 607.876 655.997 613.595C635.056 619.207 633.468 629.58 635.682 637.844L636.046 639.202C638.2 647.239 645.518 656.44 666.12 650.919C688.193 645.005 687.409 633.932 687.233 631.917L726.286 621.453ZM723.077 598.897L716.01 572.523L826.941 542.799L834.008 569.173L797.672 578.909L813.171 636.752L774.911 647.004L759.412 589.161L723.077 598.897ZM924.861 608.991L916.417 598.758L874.089 610.099L872.006 623.154L828.88 634.709L847.7 535.07L902.955 520.265L966.612 590.674L944.746 509.067L986.935 497.762L994.639 526.514L1038.93 514.646L1031.23 485.894L1073.53 474.559L1097.18 562.819L1054.88 574.154L1046.6 543.252L1002.3 555.12L1010.58 586.022L924.861 608.991ZM967.954 595.278L902.261 522.617L849.512 536.751L831.554 631.826L870.153 621.484L872.236 608.429L917.175 596.388L925.619 606.622L967.954 595.278ZM1008.02 584.542L999.741 553.64L1048.08 540.689L1056.36 571.591L1094.62 561.339L1072.05 477.122L1033.79 487.374L1041.49 516.125L993.159 529.077L985.455 500.325L947.309 510.546L969.875 594.763L1008.02 584.542ZM876.433 582.434L900.203 576.065L881.259 553.358L876.433 582.434ZM879.029 579.572L896.499 574.891L882.576 558.203L879.029 579.572ZM1205.23 550.366L1201.11 534.971L1101.16 561.753L1077.51 473.494L1119.7 462.189L1135.68 521.843L1177.03 510.763L1161.04 451.11L1203.23 439.805L1219.22 499.459L1232.8 495.819L1244.59 539.82L1205.23 550.366ZM1231.32 498.382L1242.03 538.34L1206.71 547.803L1202.59 532.408L1102.64 559.19L1080.07 474.973L1118.22 464.752L1134.2 524.406L1179.59 512.243L1163.61 452.589L1201.75 442.368L1217.74 502.022L1231.32 498.382ZM1328.38 500.87L1315.78 453.865L1282.12 513.265L1241.1 524.255L1217.45 435.995L1259.64 424.69L1272.27 471.8L1305.9 412.296L1346.92 401.306L1370.56 489.565L1328.38 500.87ZM1271.57 477.286L1258.16 427.253L1220.02 437.475L1242.58 521.692L1280.73 511.47L1316.48 448.388L1329.85 498.307L1368 488.086L1345.44 403.869L1307.29 414.09L1271.57 477.286ZM1363.91 411.24C1371.02 399.876 1385.84 389.178 1413.94 381.649L1419.37 380.193C1447.52 372.649 1465.73 374.496 1477.58 380.78C1489.48 387.09 1494.51 397.629 1496.85 406.366L1497.76 409.762C1500.07 418.387 1501.01 430.132 1493.92 441.681C1486.84 453.193 1472.04 464.075 1443.87 471.622L1438.43 473.078C1410.32 480.611 1392.09 478.58 1380.22 472.144C1368.31 465.689 1363.25 455.048 1360.94 446.423L1360.03 443.027C1357.69 434.29 1356.78 422.649 1363.91 411.24ZM1453.91 420.298L1453.49 418.714C1452.54 415.187 1450.31 411.744 1445.99 409.758C1441.61 407.746 1434.78 407.087 1424.41 409.867C1413.8 412.71 1408.23 416.696 1405.51 420.595C1402.83 424.435 1402.69 428.499 1403.65 432.068L1404.01 433.426C1404.99 437.083 1407.34 440.76 1411.75 442.932C1416.19 445.119 1423.05 445.934 1433.33 443.178C1443.63 440.42 1449.18 436.337 1451.94 432.272C1454.69 428.243 1454.89 423.951 1453.91 420.298ZM1597.53 428.751L1589.25 397.849L1544.95 409.717L1553.23 440.619L1511.05 451.924L1487.4 363.664L1529.59 352.359L1537.29 381.111L1581.58 369.243L1573.88 340.491L1616.18 329.156L1639.83 417.416L1597.53 428.751ZM1576.44 341.971L1614.7 331.719L1637.27 415.936L1599.01 426.188L1590.73 395.286L1542.39 408.237L1550.67 439.139L1512.53 449.361L1489.96 365.144L1528.11 354.922L1535.81 383.674L1584.14 370.723L1576.44 341.971ZM1730.29 393.178L1722.01 362.276L1677.72 374.144L1686 405.046L1643.81 416.35L1620.16 328.091L1662.35 316.786L1670.05 345.538L1714.34 333.67L1706.64 304.918L1794 281.51L1824.64 306.217L1836.24 270.19L1918.69 248.098L1926.4 276.85L1934.4 274.705C1934.72 266.716 1937.52 258.027 1945.15 249.931C1953.25 241.335 1966.68 233.542 1988.01 227.826L1991.75 226.825C2019.18 219.474 2037.06 221.418 2048.75 227.75C2060.48 234.102 2065.53 244.623 2067.87 253.361L2068.78 256.757C2071.1 265.389 2071.97 277.138 2065.03 288.639C2058.1 300.117 2043.64 310.914 2016.25 318.254L2012.51 319.255C1990.37 325.187 1974.45 324.826 1963 320.933C1952.23 317.274 1945.6 310.559 1941.54 303.451L1934.06 305.456L1942.34 336.358L1900.15 347.663L1878.01 265.028L1849.11 340.306M1847.15 339.558C1840.37 357.267 1836.79 362.473 1815.63 368.145L1798.42 372.755L1791.81 348.078L1806.64 344.105C1808.79 343.529 1809.42 342.267 1809.12 341.135L1809.09 341.022C1808.85 340.117 1808.26 339.302 1806.91 338.33L1749.26 295.665L1793.51 283.806L1825.7 309.758L1837.89 271.917L1877.17 261.392L1847.15 339.558ZM1750.43 299.137L1772.59 381.843L1730.29 393.178M1747.46 296.146L1709.2 306.398L1716.9 335.15L1668.57 348.101L1660.87 319.349L1622.72 329.57L1645.29 413.788L1683.43 403.566L1675.15 372.664L1723.49 359.713L1731.77 390.615L1770.03 380.363L1747.46 296.146ZM1750.43 299.137L1805.67 340.012L1805.69 340.029C1806.81 340.836 1806.99 341.287 1807.07 341.564L1807.08 341.623C1807 341.705 1806.74 341.911 1806.1 342.084L1789.25 346.599L1796.94 375.318L1816.17 370.166C1826.82 367.313 1833.45 364.485 1838.24 359.873C1843.01 355.284 1845.73 349.124 1849.11 340.306M1807.1 341.681C1807.1 341.681 1807.1 341.679 1807.1 341.677L1807.1 341.681ZM1901.63 345.1L1939.78 334.878L1931.5 303.976L1942.59 301.004C1950.11 315.488 1968.16 328.971 2011.97 317.233L2015.71 316.233C2069.93 301.704 2071.22 273.938 2066.76 257.299L2065.85 253.903C2061.33 237.037 2046.62 214.287 1992.29 228.846L1988.55 229.847C1946.33 241.16 1936.45 260.429 1936.46 276.319L1924.92 279.413L1917.21 250.661L1879.07 260.883L1901.63 345.1ZM2023.29 279.225C2025.82 275.249 2026.03 270.929 2025.05 267.263L2024.62 265.679C2023.67 262.138 2021.42 258.673 2017.31 256.626C2013.19 254.567 2006.89 253.792 1997.58 256.286C1988.09 258.828 1983.07 262.643 1980.6 266.45C1978.15 270.232 1978.01 274.328 1978.97 277.911L1979.34 279.269C1980.32 282.948 1982.66 286.653 1986.83 288.892C1990.99 291.13 1997.29 292.066 2006.51 289.598C2015.73 287.126 2020.77 283.206 2023.29 279.225ZM1362.05 442.485C1357.53 425.619 1358.79 398.593 1414.48 383.67L1419.91 382.215C1475.72 367.262 1490.31 390.041 1494.83 406.907L1495.74 410.303C1500.2 426.943 1499.13 454.648 1443.33 469.601L1437.89 471.057C1382.2 485.98 1367.42 462.521 1362.96 445.881L1362.05 442.485ZM1455.93 419.757L1455.51 418.172C1453.35 410.135 1445.15 402.143 1423.87 407.845C1402.13 413.669 1399.47 424.572 1401.63 432.609L1401.99 433.968C1404.21 442.231 1412.71 450.872 1433.88 445.2C1455.04 439.528 1458.15 428.02 1455.93 419.757ZM2007.05 291.619C2026.18 286.493 2029.28 274.985 2027.07 266.722L2026.64 265.137C2024.49 257.1 2016.28 249.108 1997.04 254.265C1977.46 259.512 1974.8 270.415 1976.95 278.452L1977.31 279.81C1979.53 288.074 1987.92 296.745 2007.05 291.619Z" fill="white" fill-opacity="0.3"/>
<path fill-rule="evenodd" clip-rule="evenodd" d="M737.371 674.906L806.942 656.265C821.013 652.494 831.143 652.776 838.321 656.049C845.588 659.362 849.465 665.566 851.385 672.733L851.968 674.908C853.877 682.034 853.602 689.489 849.007 696.145C844.453 702.74 835.871 708.233 821.872 711.984L789.141 720.754L794.862 742.104L758.022 751.976L737.371 674.906ZM792.624 740.812L759.314 749.738L739.609 676.198L807.415 658.03C835.19 650.587 845.965 659.566 849.62 673.206L850.203 675.38C853.831 688.922 848.977 702.83 821.399 710.219L786.903 719.462L792.624 740.812ZM806.669 681.733L780.56 688.729L782.686 696.665L808.795 689.669C811.444 688.959 812.777 687.985 813.4 687.116C813.979 686.309 814.116 685.354 813.802 684.181L813.749 683.983C813.418 682.748 812.817 682.003 811.933 681.609C810.968 681.179 809.334 681.019 806.669 681.733ZM930.435 705.778L923.062 696.842L886.1 706.745L884.282 718.144L846.623 728.235L863.057 641.229L911.307 628.3L966.893 689.783L947.799 618.522L1046.52 592.071L1052.57 614.678L990.697 631.258L991.499 634.251L1023.74 625.613C1038.35 621.696 1048.63 621.63 1055.8 624.468C1060.17 626.201 1063.27 628.965 1065.44 632.364C1065.16 631.519 1064.92 630.688 1064.7 629.878L1063.9 626.913C1061.86 619.283 1061.06 609.119 1067.29 599.156C1073.5 589.233 1086.44 579.891 1110.97 573.317L1115.72 572.046C1140.3 565.458 1156.2 567.071 1166.55 572.558C1171.36 575.111 1174.89 578.456 1177.49 582.07L1171.22 558.657L1309.35 521.644L1336.11 543.219L1346.24 511.76L1384.97 501.384L1357.48 572.985C1354.53 580.686 1352.15 586.064 1347.98 590.072C1343.8 594.099 1338.01 596.568 1328.71 599.06L1311.92 603.559L1305.2 578.481L1319.92 574.538C1320.48 574.387 1320.71 574.208 1320.78 574.136L1320.76 574.084C1320.7 573.842 1320.54 573.448 1319.56 572.744L1319.54 572.729L1273.46 538.628L1278.73 558.316L1247 566.818L1260.54 617.327L1223.6 627.225L1210.06 576.716L1179.35 584.947C1181.27 588.284 1182.53 591.728 1183.38 594.9L1184.17 597.865C1186.19 605.397 1187.01 615.653 1180.81 625.737C1174.63 635.79 1161.71 645.292 1137.11 651.883L1132.36 653.154C1107.82 659.732 1091.9 657.959 1081.53 652.339C1075.32 648.972 1071.24 644.302 1068.54 639.482C1068.58 639.634 1068.62 639.786 1068.66 639.939L1068.85 640.631C1070.73 647.658 1070.48 654.899 1065.71 661.396C1061 667.802 1052.13 673.17 1037.53 677.083L930.435 705.778ZM968.064 693.803L910.7 630.355L864.639 642.697L848.958 725.718L882.664 716.686L884.483 705.287L923.723 694.772L931.097 703.709L968.064 693.803ZM1037.05 675.317C1065.92 667.584 1070.66 654.448 1067.08 641.104L1066.9 640.412C1063.46 627.562 1053.17 619.618 1024.21 627.378L990.207 636.489L988.459 629.966L1050.33 613.386L1045.22 594.309L950.037 619.814L969.742 693.354L1037.05 675.317ZM1270.34 534.046L1320.63 571.26C1321.81 572.109 1322.32 572.82 1322.53 573.611L1322.55 573.71C1322.82 574.698 1322.27 575.8 1320.39 576.303L1307.44 579.773L1313.21 601.321L1328.24 597.295C1346.72 592.342 1349.85 587.797 1355.77 572.332L1381.97 504.077L1347.68 513.267L1337.04 546.311L1308.93 523.649L1173.46 559.949L1179.63 582.98L1211.36 574.478L1224.89 624.987L1258.3 616.035L1244.77 565.526L1276.49 557.024L1270.34 534.046ZM888.147 682.588L908.904 677.026L892.361 657.198L888.147 682.588ZM890.414 680.088L905.669 676.001L893.512 661.429L890.414 680.088ZM997.159 655.376L999.047 662.422L1025.16 655.426C1028.22 654.606 1029.67 653.539 1030.32 652.67C1030.92 651.874 1030.99 651.049 1030.76 650.2L1030.71 650.003C1030.48 649.16 1030.02 648.512 1029.13 648.142C1028.13 647.733 1026.34 647.556 1023.27 648.38L997.159 655.376ZM1145.88 607.066L1145.51 605.682C1144.68 602.602 1142.73 599.596 1138.96 597.862C1135.14 596.105 1129.18 595.53 1120.12 597.957C1110.85 600.44 1105.99 603.92 1103.61 607.325C1101.27 610.678 1101.15 614.227 1101.99 617.343L1102.31 618.529C1103.16 621.722 1105.21 624.933 1109.06 626.83C1112.95 628.739 1118.93 629.451 1127.91 627.045C1136.9 624.637 1141.74 621.071 1144.16 617.522C1146.56 614.004 1146.73 610.255 1145.88 607.066ZM778.322 687.437L781.394 698.903L809.268 691.434C815.001 689.898 816.414 686.871 815.567 683.708L815.514 683.51C814.64 680.248 811.929 678.432 806.196 679.968L778.322 687.437ZM997.755 664.66L1025.63 657.191C1032.15 655.443 1033.22 652.297 1032.53 649.727L1032.47 649.53C1031.79 646.96 1029.32 644.867 1022.79 646.615L994.921 654.083L997.755 664.66ZM1065.67 626.44C1061.72 611.712 1062.81 588.112 1111.45 575.082L1116.19 573.811C1164.92 560.753 1177.67 580.645 1181.61 595.373L1182.41 598.338C1186.3 612.868 1185.37 637.061 1136.64 650.118L1131.89 651.389C1083.26 664.42 1070.36 643.935 1066.46 629.405L1065.67 626.44ZM1147.65 606.593L1147.27 605.209C1145.39 598.191 1138.23 591.213 1119.64 596.192C1100.67 601.277 1098.34 610.798 1100.22 617.816L1100.54 619.002C1102.48 626.218 1109.9 633.763 1128.38 628.81C1146.87 623.857 1149.58 613.808 1147.65 606.593Z" fill="white" fill-opacity="0.3"/>
</svg>
