<svg width="215" height="38" viewBox="0 0 215 38" fill="none" xmlns="http://www.w3.org/2000/svg">
<path d="M113.539 24.0158C113.125 25.3596 112.711 26.5318 112.297 27.5324C111.904 28.5331 111.47 29.3765 110.994 30.0627C110.539 30.7203 110.022 31.2206 109.443 31.5637C108.884 31.9068 108.222 32.0783 107.457 32.0783C107.353 32.0783 107.25 32.0783 107.147 32.0783C107.043 32.0783 106.94 32.064 106.836 32.0354V29.5909C106.94 29.6195 107.033 29.6338 107.115 29.6338C107.219 29.6338 107.322 29.6338 107.426 29.6338C108.481 29.6338 109.308 29.205 109.908 28.3473C110.529 27.461 111.087 26.2459 111.584 24.702L103.578 2.23004H105.843L112.608 21.4856L118.472 2.23004H120.365L113.539 24.0158Z" fill="black"/>
<path d="M132.261 32.0354H130.4V22.1718C129.841 22.8008 129.19 23.2868 128.445 23.6299C127.721 23.9444 126.873 24.1016 125.9 24.1016C124.308 24.1016 123.046 23.5155 122.115 22.3433C121.184 21.1425 120.719 19.227 120.719 16.5967V10.464H122.611V16.5967C122.611 18.5694 122.932 19.956 123.573 20.7565C124.235 21.5571 125.176 21.9573 126.397 21.9573C127.142 21.9573 127.855 21.843 128.538 21.6143C129.221 21.3855 129.841 20.971 130.4 20.3706V10.464H132.261V32.0354Z" fill="black"/>
<path d="M148.686 30.0627C148.5 30.2914 148.241 30.5487 147.911 30.8346C147.6 31.1205 147.218 31.3921 146.762 31.6494C146.328 31.8782 145.811 32.064 145.211 32.207C144.632 32.3785 143.99 32.4643 143.287 32.4643C140.763 32.4643 138.819 31.4922 137.454 29.5481C136.088 27.5753 135.406 24.8021 135.406 21.2283C135.406 19.4843 135.592 17.9261 135.964 16.5538C136.337 15.1529 136.843 13.9664 137.485 12.9943C138.147 12.0222 138.922 11.2932 139.812 10.8071C140.722 10.2925 141.694 10.0352 142.729 10.0352C143.763 10.0352 144.694 10.2925 145.521 10.8071C146.369 11.2932 147.073 12.0365 147.631 13.0372C148.19 14.0092 148.583 15.2386 148.81 16.7253C149.038 18.1834 149.048 19.8845 148.841 21.8287H137.298C137.381 24.6305 137.94 26.7605 138.974 28.2186C140.008 29.6481 141.498 30.3629 143.442 30.3629C144.642 30.3629 145.697 30.1199 146.607 29.6338C147.517 29.1192 148.21 28.6046 148.686 28.09V30.0627ZM142.667 11.9221C141.26 11.9221 140.06 12.594 139.067 13.9378C138.074 15.2815 137.495 17.2828 137.329 19.9417H147.073C147.155 18.5694 147.104 17.3829 146.918 16.3822C146.731 15.3816 146.431 14.5525 146.018 13.8949C145.625 13.2373 145.139 12.7513 144.559 12.4368C143.98 12.0937 143.349 11.9221 142.667 11.9221Z" fill="black"/>
<path d="M166.274 21.3141C166.274 23.0867 166.078 24.6734 165.685 26.0743C165.312 27.4467 164.785 28.6046 164.102 29.5481C163.44 30.4915 162.654 31.2206 161.744 31.7352C160.834 32.2213 159.841 32.4643 158.765 32.4643C157.689 32.4643 156.696 32.2213 155.786 31.7352C154.876 31.2206 154.09 30.4487 153.428 29.4194C152.787 28.3902 152.28 27.1036 151.907 25.5597C151.535 23.9873 151.349 22.1432 151.349 20.0275C151.349 18.3979 151.38 16.7539 151.442 15.0957C151.504 13.4088 151.67 11.8078 151.939 10.2925C152.207 8.74863 152.611 7.33341 153.149 6.04685C153.707 4.76028 154.473 3.70244 155.445 2.87332C155.962 2.44447 156.479 2.11568 156.996 1.88696C157.534 1.62965 158.072 1.44381 158.61 1.32945C159.168 1.1865 159.727 1.10073 160.285 1.07213C160.844 1.04354 161.423 1.01495 162.023 0.986365C162.726 0.929185 163.326 0.814823 163.823 0.64328C164.319 0.471739 164.743 0.257313 165.095 0V2.23004C164.764 2.54454 164.371 2.78755 163.916 2.9591C163.461 3.10205 162.892 3.20211 162.209 3.25929C160.968 3.34506 159.861 3.44513 158.889 3.55949C157.917 3.67385 156.996 4.07412 156.127 4.76028C154.969 5.70376 154.162 7.20475 153.707 9.26325C153.273 11.2932 153.014 13.6947 152.931 16.468C153.407 14.3523 154.173 12.7799 155.228 11.7506C156.283 10.7214 157.576 10.2067 159.106 10.2067C160.161 10.2067 161.123 10.4498 161.992 10.9358C162.861 11.4218 163.616 12.1366 164.257 13.0801C164.898 14.0235 165.395 15.1957 165.747 16.5967C166.098 17.969 166.274 19.5415 166.274 21.3141ZM158.765 30.5773C159.572 30.5773 160.316 30.3772 160.999 29.9769C161.682 29.5767 162.271 28.9906 162.768 28.2186C163.264 27.4467 163.647 26.4889 163.916 25.3453C164.205 24.1731 164.35 22.8293 164.35 21.3141C164.35 19.7702 164.216 18.4264 163.947 17.2828C163.678 16.1106 163.295 15.1529 162.799 14.4095C162.323 13.6376 161.754 13.0658 161.092 12.6941C160.43 12.2938 159.706 12.0937 158.92 12.0937C158.113 12.0937 157.369 12.2938 156.686 12.6941C156.003 13.0658 155.403 13.6376 154.886 14.4095C154.39 15.1529 153.997 16.0963 153.707 17.2399C153.418 18.3836 153.273 19.713 153.273 21.2283C153.273 22.7722 153.407 24.1302 153.676 25.3024C153.966 26.4746 154.348 27.4467 154.824 28.2186C155.321 28.9906 155.9 29.5767 156.562 29.9769C157.245 30.3772 157.979 30.5773 158.765 30.5773Z" fill="black"/>
<path d="M179.978 21.7858H171.259V32.0354H169.397V10.464H171.259V19.8988H179.978V10.464H181.84V32.0354H179.978V21.7858Z" fill="black"/>
<path d="M197.144 13.9806L187.649 32.0354H185.942V10.464H187.804V28.433L197.33 10.464H199.005V32.0354H197.144V13.9806Z" fill="black"/>
<path d="M204.955 10.464V32.0354H203.093V10.464H204.955ZM206.834 20.9281L214.002 32.0354H211.706L204.693 21.2712L211.799 10.464H213.784L206.834 20.9281Z" fill="black"/>
<path d="M12.0792 20.0287V32.4643H15.4592V0H10.4169C5.44396 0 1.27441 3.40975 1.27441 10.2149C1.27441 15.0717 3.11677 17.7078 5.88723 19.1691L0 32.4643H3.9202L9.2672 20.0287H12.0792ZM12.0792 17.1204H10.2784C7.34173 17.1204 4.91757 15.4442 4.91757 10.2149C4.91757 4.81377 7.56336 2.9513 10.2784 2.9513H12.0792V17.1204Z" fill="#FF0000"/>
<path d="M49.88 29.6738H48.1182V9.59209H37.7433V11.5499C37.7433 17.668 37.5196 24.7794 35.4782 29.6738H34.1079V37.1019H37.212V32.5817H46.7899V37.1019H49.88V29.6738ZM64.9109 31.0414L64.1139 28.3063C63.233 28.9397 61.681 29.8466 59.7235 29.8466C56.983 29.8466 55.5568 27.1114 55.5568 21.9146H64.869V19.9425C64.869 12.1401 62.4361 9.27539 58.7028 9.27539C53.9628 9.27539 51.9633 14.6593 51.9633 22.0442C51.9633 29.1268 54.8017 32.9128 59.4159 32.9128C61.6391 32.9128 63.4987 32.1786 64.9109 31.0414ZM28.6968 9.59209V19.3522H23.5513V9.59209H20.0977V32.5817H23.5513V22.2745H28.6968V32.5817H32.1084V9.59209H28.6968ZM77.7607 32.5817H81.5359L75.2019 20.4031L80.7389 9.59209H77.2293L71.8741 20.216V9.59209H68.4205V32.5817H71.8741V21.1373L77.7607 32.5817ZM89.6456 32.9128C91.687 32.9128 93.0992 32.2218 94.3017 31.171L93.5047 28.5222C92.7077 29.2564 91.4214 29.9473 89.7295 29.9473C86.947 29.9473 85.6047 26.6508 85.6047 20.907C85.6047 15.1056 87.3805 12.2409 89.8693 12.2409C91.2815 12.2409 92.6099 13.0182 93.5467 13.8388L94.036 10.4558C93.0573 9.82242 91.9107 9.27539 89.9113 9.27539C84.6819 9.27539 81.9833 13.882 81.9833 21.0941C81.9833 28.9397 84.8637 32.9128 89.6456 32.9128ZM44.7065 29.6738H38.764C40.6237 24.7794 40.8474 17.7112 40.8474 12.8743V12.4712H44.7065V29.6738ZM58.7028 12.1977C60.7023 12.1977 61.3175 15.0624 61.3175 18.9924H55.5987C55.8224 14.8896 56.5775 12.1977 58.7028 12.1977Z" fill="#241F21"/>
</svg>
