<svg width="46" height="46" viewBox="0 0 46 46" fill="none" xmlns="http://www.w3.org/2000/svg">
<path d="M23 0C18.451 0 14.0042 1.34893 10.2219 3.8762C6.43956 6.40347 3.4916 9.99558 1.75078 14.1983C0.00996554 18.401 -0.445511 23.0255 0.441949 27.4871C1.32941 31.9486 3.51995 36.0468 6.73655 39.2634C9.95316 42.4801 14.0514 44.6706 18.5129 45.5581C22.9745 46.4455 27.599 45.99 31.8017 44.2492C36.0044 42.5084 39.5965 39.5604 42.1238 35.7781C44.6511 31.9958 46 27.549 46 23C46 16.9 43.5768 11.0499 39.2635 6.73654C34.9501 2.42321 29.1 0 23 0V0ZM36.5981 33.2149H32.7103C31.4299 33.2149 31.271 32.2056 28.9159 29.9626C26.9252 28 26.1122 27.8131 25.5981 27.8131C25.0841 27.8131 24.8785 28.0935 24.8785 28.8411V31.8411C24.8785 32.7757 24.3645 33.0748 22.2804 33.0748C18.8505 33.0748 15.0561 30.9626 12.1589 27.0561C7.80375 21.243 6.71029 17.0841 6.71029 16.1402C6.71029 15.6355 7.08412 15.4579 7.58879 15.4579H11.0935C12.028 15.4579 12.3551 15.5514 12.6729 16.514C14.2804 21.1869 17.3458 25.2897 18.5327 25.2897C18.9907 25.2897 19.2243 24.8318 19.2243 23.8692V19.0748C19.2243 16.757 17.729 16.729 17.729 15.8785C17.729 15.5327 17.8131 15.4579 18.243 15.4579H23.8505C24.5981 15.4579 24.7851 15.3832 24.7851 16.2991V22.8411C24.7851 23.5888 24.8785 23.8598 25.2056 23.8598C25.5327 23.8598 25.9626 23.6168 26.7103 22.7944C28.3641 20.7901 29.7699 18.5935 30.8972 16.2523C30.9933 15.9906 31.1771 15.7703 31.4174 15.6288C31.6576 15.4874 31.9395 15.4336 32.215 15.4766H35.7196C36.4206 15.4766 36.7103 15.7757 36.5794 16.4112C36.1776 18.2804 32.1402 23.9533 32.1402 23.9533C31.7664 24.542 31.6075 24.8411 32.1402 25.4019C32.514 25.8878 33.6916 26.9159 34.4112 27.8785C36.1776 29.7477 37.3271 31.4019 37.3271 32.2804C37.3832 32.9626 37 33.2149 36.5981 33.2149Z" fill="#54AFFF"/>
</svg>
