<svg width="40" height="40" viewBox="0 0 40 40" fill="none" xmlns="http://www.w3.org/2000/svg">
<circle cx="20" cy="20" r="20" fill="#5181B8"/>
<path fill-rule="evenodd" clip-rule="evenodd" d="M30.6843 14.467C30.8406 13.9665 30.6843 13.5996 29.9435 13.5996H27.4931C26.8706 13.5996 26.5828 13.9173 26.4264 14.2674C26.4264 14.2674 25.1815 17.1901 23.4164 19.0879C22.8451 19.6362 22.5835 19.8119 22.2738 19.8119C22.1174 19.8119 21.8924 19.6376 21.8924 19.1371V14.467C21.8924 13.8667 21.7112 13.5996 21.191 13.5996H17.3408C16.9522 13.5996 16.7184 13.878 16.7184 14.1423C16.7184 14.7102 17.6009 14.8409 17.6915 16.4394V19.9117C17.6915 20.6737 17.5483 20.8115 17.2371 20.8115C16.4057 20.8115 14.3849 17.8761 13.1867 14.5162C12.9529 13.8639 12.7162 13.5996 12.0909 13.5996H9.639C8.9391 13.5996 8.79883 13.9173 8.79883 14.2674C8.79883 14.8916 9.63024 17.9886 12.668 22.0837C14.6932 24.8813 17.5454 26.3996 20.1419 26.3996C21.6995 26.3996 21.8924 26.0622 21.8924 25.4816V23.3673C21.8924 22.6939 22.0385 22.5589 22.5324 22.5589C22.8977 22.5589 23.5201 22.7346 24.9726 24.0828C26.6354 25.6812 26.9086 26.3996 27.8438 26.3996H30.2941C30.9941 26.3996 31.3447 26.0622 31.1416 25.3973C30.9225 24.7351 30.1276 23.7735 29.0755 22.6348C28.5042 21.9853 27.648 21.2852 27.3879 20.9366C27.024 20.4867 27.1278 20.2871 27.3879 19.8864C27.3879 19.8864 30.3731 15.8405 30.6843 14.467Z" fill="white"/>
</svg>
